Spatio-temporal Trends of Precipitation Analysis in the Riverine Agriculture Area of the Shabelle River using the Mann-Kendall (MK) Family and Innovative Trend Analysis (ITA)
…
afgoye_annul <- afgooye_df |> 
  distinct(year, .keep_all = TRUE) 

afgoye_annual_ts <- ts(afgoye_annul$ANN, start = 1981, 
                       frequency = 1)

afgoye_ts <- ts(afgooye_df$precipitation, start = 1981, frequency = 12)

afgooye_df

# A tibble: 480 × 8
    year   ANN Jilaal `Gu'` Hagaa  Deyr months precipitation
   <dbl> <dbl>  <dbl> <dbl> <dbl> <dbl> <chr>          <dbl>
 1  1981  585.   94.9  380.  52.7  58.0 JAN              0  
 2  1981  585.   94.9  380.  52.7  58.0 FEB             21.1
 3  1981  585.   94.9  380.  52.7  58.0 MAR             73.8
 4  1981  585.   94.9  380.  52.7  58.0 APR            359. 
 5  1981  585.   94.9  380.  52.7  58.0 MAY             21.1
 6  1981  585.   94.9  380.  52.7  58.0 JUN              0  
 7  1981  585.   94.9  380.  52.7  58.0 JUL              0  
 8  1981  585.   94.9  380.  52.7  58.0 AUG              0  
 9  1981  585.   94.9  380.  52.7  58.0 SEP             52.7
10  1981  585.   94.9  380.  52.7  58.0 OCT             15.8
# ℹ 470 more rows
…
# A tibble: 2 × 5
  term         estimate std.error statistic p.value
  <chr>           <dbl>     <dbl>     <dbl>   <dbl>
1 (Intercept) -11234.     5940.       -1.89  0.0662
2 year             5.80      2.97      1.96  0.0580

model_data <- afgooye_seasonal |> 
  group_by(year, seasons) |> 
  summarise(mean_precipitation = mean(precipitation))

model_data

# A tibble: 160 × 3
# Groups:   year [40]
    year seasons mean_precipitation
   <dbl> <chr>                <dbl>
 1  1981 Deyr                  58.0
 2  1981 Gu'                  380. 
 3  1981 Hagaa                 52.7
 4  1981 Jilaal                94.9
 5  1982 Deyr                  58  
 6  1982 Gu'                   36.9
 7  1982 Hagaa                 21.1
 8  1982 Jilaal                63.3
 9  1983 Deyr                   0  
10  1983 Gu'                   94.9
# ℹ 150 more rows
…
  qoryooley_df

# A tibble: 492 × 9
    YEAR   ANN Jilaal `Gu'` Hagaa  Deyr months    precipitation date      
   <dbl> <dbl>  <dbl> <dbl> <dbl> <dbl> <chr>             <dbl> <date>    
 1  1981  686.   153.  396.  42.2  94.9 January             0   1981-01-01
 2  1981  686.   153.  396.  42.2  94.9 February           31.6 1981-02-01
 3  1981  686.   153.  396.  42.2  94.9 March             121.  1981-03-01
 4  1981  686.   153.  396.  42.2  94.9 April             369.  1981-04-01
 5  1981  686.   153.  396.  42.2  94.9 May                26.4 1981-05-01
 6  1981  686.   153.  396.  42.2  94.9 June                0   1981-06-01
 7  1981  686.   153.  396.  42.2  94.9 July                0   1981-07-01
 8  1981  686.   153.  396.  42.2  94.9 August              0   1981-08-01
 9  1981  686.   153.  396.  42.2  94.9 September          42.2 1981-09-01
10  1981  686.   153.  396.  42.2  94.9 October            42.2 1981-10-01
# ℹ 482 more rows

  qoryooley_df |> 
    group_by(YEAR) |> 
    summarise(annual_prec = sum(precipitation))

# A tibble: 41 × 2
    YEAR annual_prec
   <dbl>       <dbl>
 1  1981       686. 
 2  1982       279. 
 3  1983        94.9
 4  1984       190. 
 5  1985        89.6
 6  1986       142. 
 7  1987       633. 
 8  1988       148. 
 9  1989       338. 
10  1990       701. 
# ℹ 31 more rows
…
afgoye_small <- full_df |> 
   filter(twn == 'Afgooye') |> 
  distinct(YEAR, .keep_all = TRUE) |> 
  transmute(YEAR, Jilaal, `Gu'`, Hagaa, Deyr) |> 
   pivot_longer(cols = Jilaal:Deyr)

full_df |> 
  filter(twn == 'Afgooye') |> 
  #distinct(YEAR, .keep_all = TRUE) |> 
  select(YEAR, months, precipitation) |> 
  #count(YEAR) |> 
  filter(YEAR >= 2000)

# A tibble: 252 × 3
    YEAR months precipitation
   <dbl> <chr>          <dbl>
 1  2000 JAN             0   
 2  2000 FEB             0   
 3  2000 MAR             0   
 4  2000 APR            10.6 
 5  2000 MAY            79.1 
 6  2000 JUN             0   
 7  2000 JUL             0   
 8  2000 AUG             0   
 9  2000 SEP             5.27
10  2000 OCT           243.  
# ℹ 242 more rows
…
### qoryoley

qoryoley <- full_df |> 
  filter(twn == 'Qoryooley') |> 
  distinct(YEAR, .keep_all = TRUE)

qoryoley_impute <- qoryoley |> 
  mutate(Deyr = case_when(
    Deyr ==   1075.78 ~ NA,
    .default = Deyr
  ))

qoryoley

# A tibble: 41 × 9
    YEAR   ANN Jilaal `Gu'` Hagaa  Deyr months precipitation twn      
   <dbl> <dbl>  <dbl> <dbl> <dbl> <dbl> <chr>          <dbl> <chr>    
 1  1981 686.  153.   396.   42.2  94.9 JAN             0    Qoryooley
 2  1982 279.   52.7  100.   58.0  68.6 JAN            36.9  Qoryooley
 3  1983  94.9   5.27  89.6   0     0   JAN             5.27 Qoryooley
 4  1984 190.    0     68.6  68.6  52.7 JAN             0    Qoryooley
 5  1985  89.6  36.9   52.7   0     0   JAN             0    Qoryooley
 6  1986 142.    0     36.9   0   105.  JAN             0    Qoryooley
 7  1987 633.   10.6  279.  248.   94.9 JAN             0    Qoryooley
 8  1988 148.   15.8  116.    0    15.8 JAN             0    Qoryooley
 9  1989 338.    0    269.    0    68.6 JAN             0    Qoryooley
10  1990 701.   31.6  338.    0   332.  JAN             0    Qoryooley
# ℹ 31 more rows
…
